traceroute to 8.8.8.8 (8.8.8.8), 30 hops max, 60 byte packets
 1  10.0.5.254 (10.0.5.254)  1.451 ms  1.422 ms  1.414 ms
 2  10.255.255.254 (10.255.255.254)  4.347 ms  4.431 ms  4.434 ms
 3  202.92.144.254 (202.92.144.254)  1.280 ms  1.268 ms  1.229 ms
 4  626.ge-3-33.border-asti.pregi.net (202.90.129.237)  6.888 ms  7.015 ms  6.998 ms
 5  tengige0-0-2-0.border-asti-asr.pregi.net (202.90.132.229)  8.751 ms  7.089 ms  9.201 ms
 6  tengige0-0-2-0.border-hk-asr.pregi.net (202.90.129.50)  23.757 ms  23.139 ms  23.058 ms
 7  72.14.212.20 (72.14.212.20)  24.790 ms  23.486 ms  23.093 ms
 8  * * 108.170.241.33 (108.170.241.33)  24.444 ms
 9  216.239.40.31 (216.239.40.31)  24.457 ms 108.170.238.133 (108.170.238.133)  21.038 ms 74.125.252.89 (74.125.252.89)  25.044 ms
10  dns.google (8.8.8.8)  32.245 ms  25.332 ms  30.232 ms
